Email: postdvk@yandex.ru,
Пароль: BKR6UIrUT5
https://youproxy.ru/
ttps://scp64.hosting.reg.ru:2083/
Логин: u1013341
Пароль: FgA4K!6c


#165502
EX-40 - 148.251.10.226
IP адрес 148.251.10.226
Имя пользователя root
Пароль bU3z2JMW3BfVxJ
Порт 22 (SSH)
#165502
EX-40 - 148.251.10.226
Адрес	https://148.251.10.226:8888
Имя пользователя	fastuser
Пароль	9rPC5RGo39oy3Vfk
Вход в биллинг: https://bill2fast.com/login
Логин: postdvk@gmail.com
Пароль: VkKpGdN4j52u99Ri
mouk
N4k0P6g5
db
mouk
6C5d3L1g